%YAML 1.1
%TAG !u! tag:unity3d.com,2011:
--- !u!1001 &1862101691496855710
PrefabInstance:
  m_ObjectHideFlags: 0
  serializedVersion: 2
  m_Modification:
    m_TransformParent: {fileID: 0}
    m_Modifications:
    - target: {fileID: 100054, guid: d0c255d07fd68f14b94e55d388e7e6bb, type: 3}
      propertyPath: m_Name
      value: r_hand_skeletal_lowres
      objectReference: {fileID: 0}
    - target: {fileID: 400054, guid: d0c255d07fd68f14b94e55d388e7e6bb, type: 3}
      propertyPath: m_LocalPosition.x
      value: 0
      objectReference: {fileID: 0}
    - target: {fileID: 400054, guid: d0c255d07fd68f14b94e55d388e7e6bb, type: 3}
      propertyPath: m_LocalPosition.y
      value: 0
      objectReference: {fileID: 0}
    - target: {fileID: 400054, guid: d0c255d07fd68f14b94e55d388e7e6bb, type: 3}
      propertyPath: m_LocalPosition.z
      value: 0
      objectReference: {fileID: 0}
    - target: {fileID: 400054, guid: d0c255d07fd68f14b94e55d388e7e6bb, type: 3}
      propertyPath: m_LocalRotation.x
      value: 0
      objectReference: {fileID: 0}
    - target: {fileID: 400054, guid: d0c255d07fd68f14b94e55d388e7e6bb, type: 3}
      propertyPath: m_LocalRotation.y
      value: 0
      objectReference: {fileID: 0}
    - target: {fileID: 400054, guid: d0c255d07fd68f14b94e55d388e7e6bb, type: 3}
      propertyPath: m_LocalRotation.z
      value: 0
      objectReference: {fileID: 0}
    - target: {fileID: 400054, guid: d0c255d07fd68f14b94e55d388e7e6bb, type: 3}
      propertyPath: m_LocalRotation.w
      value: 1
      objectReference: {fileID: 0}
    - target: {fileID: 400054, guid: d0c255d07fd68f14b94e55d388e7e6bb, type: 3}
      propertyPath: m_RootOrder
      value: 0
      objectReference: {fileID: 0}
    - target: {fileID: 400054, guid: d0c255d07fd68f14b94e55d388e7e6bb, type: 3}
      propertyPath: m_LocalEulerAnglesHint.x
      value: 0
      objectReference: {fileID: 0}
    - target: {fileID: 400054, guid: d0c255d07fd68f14b94e55d388e7e6bb, type: 3}
      propertyPath: m_LocalEulerAnglesHint.y
      value: 0
      objectReference: {fileID: 0}
    - target: {fileID: 400054, guid: d0c255d07fd68f14b94e55d388e7e6bb, type: 3}
      propertyPath: m_LocalEulerAnglesHint.z
      value: 0
      objectReference: {fileID: 0}
    - target: {fileID: 13700000, guid: d0c255d07fd68f14b94e55d388e7e6bb, type: 3}
      propertyPath: m_Materials.Array.data[0]
      value: 
      objectReference: {fileID: 2100000, guid: c9fe10cba3ef400419df97d7b7557bd9, type: 2}
    m_RemovedComponents: []
  m_SourcePrefab: {fileID: 100100000, guid: d0c255d07fd68f14b94e55d388e7e6bb, type: 3}
